C:\kibria\spring-batch-example\src\main\java\com\example\springbatchexample\SpringBatchExampleApplication.java
C:\kibria\spring-batch-example\src\main\java\com\example\springbatchexample\model\User.java
C:\kibria\spring-batch-example\src\main\java\com\example\springbatchexample\controller\UserController.java
C:\kibria\spring-batch-example\src\main\java\com\example\springbatchexample\config\SpringBatchConfig.java
C:\kibria\spring-batch-example\src\main\java\com\example\springbatchexample\writer\DBWriter.java
C:\kibria\spring-batch-example\src\main\java\com\example\springbatchexample\repository\UserRepository.java
C:\kibria\spring-batch-example\src\main\java\com\example\springbatchexample\processor\Processor.java
